Credit
…
Credit %>%
  group_by(Age) %>%
  summarize(mean(Balance))

## # A tibble: 68 x 2
##      Age `mean(Balance)`
##    <int>           <dbl>
##  1    23            194 
##  2    24            377.
##  3    25            577.
##  4    26            937 
##  5    27            146 
##  6    28            636.
##  7    29            538 
##  8    30            461.
##  9    31            361.
## 10    32            332.
## # ... with 58 more rows
…
